[
  {
    "name": "あゆみ(L)",
    "subject": "2018-10-08 12:00~19:00 出勤",
    "time": "2018-10-08",
    "color": "pink"
  },
  {
    "name": "みずきB)",
    "subject": "2018-10-08 14:00~21:00 出勤",
    "time": "11:03",
    "color": "white"
  },
  {
    "name": "みさき+)",
    "subject": "2018-10-08 19:00~04:00 出勤",
    "time": "2018-09-30",
    "color": "pink"
  }
]
