[
  {
    "text": "Anemone渋谷店"
  },
  {
    "text": "Anemone銀座店"
  },
  {
    "text": "Anemone新宿店"
  },
  {
    "text": "Anemone品川店"
  },
  {
    "text": "宝石（エステ）"
  },
  {
    "text": "ブラックライン"
  },
  {
    "text": "AromaLove"
  },
  {
    "text": "Letice(レティス)六本木店"
  },
  {
    "text": "vellugue(ヴェルージュ)丸の内店"
  },
  {
    "text": "ALDO(アルド)恵比寿"
  },
  {
    "text": "LUCIO(ルチオ)西麻布"
  },
  {
    "text": "AnemoneGroup"
  }
]
