[
  {
    "time": "2019/011/04 11:44",
    "operation": "ページ名 / 項目名",
    "staf": "阿部 健二",
    "terminal": "",
    "store": "アネモネ渋谷店"
  },
  {
    "time": "2019/011/04 11:44",
    "operation": "ページ名 / 項目名",
    "staf": "阿部 健二",
    "terminal": "",
    "store": "アネモネ渋谷店"
  },
  {
    "time": "2019/011/04 11:44",
    "operation": "ページ名 / 項目名",
    "staf": "阿部 健二",
    "terminal": "",
    "store": "アネモネ渋谷店"
  },
  {
    "time": "2019/011/04 11:44",
    "operation": "ページ名 / 項目名",
    "staf": "阿部 健二",
    "terminal": "",
    "store": "アネモネ渋谷店"
  },
  {
    "time": "2019/011/04 11:44",
    "operation": "ページ名 / 項目名",
    "staf": "阿部 健二",
    "terminal": "",
    "store": "アネモネ渋谷店"
  },
  {
    "time": "2019/011/04 11:44",
    "operation": "ページ名 / 項目名",
    "staf": "阿部 健二",
    "terminal": "",
    "store": "アネモネ渋谷店"
  },
  {
    "time": "2019/011/04 11:44",
    "operation": "ページ名 / 項目名",
    "staf": "阿部 健二",
    "terminal": "",
    "store": "アネモネ渋谷店"
  },
  {
    "time": "2019/011/04 11:44",
    "operation": "ページ名 / 項目名",
    "staf": "阿部 健二",
    "terminal": "",
    "store": "アネモネ渋谷店"
  },
  {
    "time": "2019/011/04 11:44",
    "operation": "ページ名 / 項目名",
    "staf": "阿部 健二",
    "terminal": "",
    "store": "アネモネ渋谷店"
  },
  {
    "time": "2019/011/04 11:44",
    "operation": "ページ名 / 項目名",
    "staf": "阿部 健二",
    "terminal": "",
    "store": "アネモネ渋谷店"
  },
  {
    "time": "2019/011/04 11:44",
    "operation": "ページ名 / 項目名",
    "staf": "阿部 健二",
    "terminal": "",
    "store": "アネモネ渋谷店"
  },
  {
    "time": "2019/011/04 11:44",
    "operation": "ページ名 / 項目名",
    "staf": "阿部 健二",
    "terminal": "",
    "store": "アネモネ渋谷店"
  },
  {
    "time": "2019/011/04 11:44",
    "operation": "ページ名 / 項目名",
    "staf": "阿部 健二",
    "terminal": "",
    "store": "アネモネ渋谷店"
  },
  {
    "time": "2019/011/04 11:44",
    "operation": "ページ名 / 項目名",
    "staf": "阿部 健二",
    "terminal": "",
    "store": "アネモネ渋谷店"
  },
  {
    "time": "2019/011/04 11:44",
    "operation": "ページ名 / 項目名",
    "staf": "阿部 健二",
    "terminal": "",
    "store": "アネモネ渋谷店"
  },
  {
    "time": "2019/011/04 11:44",
    "operation": "ページ名 / 項目名",
    "staf": "阿部 健二",
    "terminal": "",
    "store": "アネモネ渋谷店"
  },
  {
    "time": "2019/011/04 11:44",
    "operation": "ページ名 / 項目名",
    "staf": "阿部 健二",
    "terminal": "",
    "store": "アネモネ渋谷店"
  },
  {
    "time": "2019/011/04 11:44",
    "operation": "ページ名 / 項目名",
    "staf": "阿部 健二",
    "terminal": "",
    "store": "アネモネ渋谷店"
  },
  {
    "time": "2019/011/04 11:44",
    "operation": "ページ名 / 項目名",
    "staf": "阿部 健二",
    "terminal": "",
    "store": "アネモネ渋谷店"
  },
  {
    "time": "2019/011/04 11:44",
    "operation": "ページ名 / 項目名",
    "staf": "阿部 健二",
    "terminal": "",
    "store": "アネモネ渋谷店"
  }
]
