[
  {
    "number": "1",
    "textbox": [
      {
        "left": "％％本名％％",
        "center": "％％源氏名％％",
        "link": "Anemone渋谷店（同期：新宿店）"
      }
    ]
  },
  {
    "number": "2",
    "textbox": [
      {
        "left": "％％本名％％",
        "center": "％％源氏名％％",
        "link": "宝石（エステ）"
      }
    ]
  }
]
