[
  {
    "title": "＄源氏名＄：シフト申請内容１",
    "time": "2018年8月14日（火曜）13:00~24:00 完全終了",
    "desc": "この日は、世田谷の自宅まで送りをお願いしたいです。送りが難し場合は別途教えてください。",
    "status": "未処理",
    "color": "blue"
  },
  {
    "title": "＄源氏名＄：シフト申請内容２",
    "time": "2018年8月21日（火曜）19:00~03:00 完全終了",
    "desc": "千葉まで送りお願いします。",
    "status": "保留中",
    "color": "red"
  },
  {
    "title": "＄源氏名＄：シフト申請内容３",
    "time": "2018年8月14日（火曜）14:00~22:00 完全終了",
    "desc": "21時半には上がれるようにしたいです。",
    "status": "未処理",
    "color": "blue"
  }
]
